The improved RMSE of Linear Regression is --> 0.27386127875258304

The improved RMSE of Decison Tree Regression is --> 0.5755432216610669

The improved RMSE of Random Forest Regression is --> 0.3535533905932738

